IDE,Debugging,Value Inspection,Compiler,Time to start and open project (seconds),Error Readability
Code::Blocks,Yes,Yes - behind menu,Yes,15,Good
NetBeans,Yes,Yes,External,10,Okay
Visual Studio,Yes,Yes,Yes,15,Better
,,,,"NB: Visual studio and Netbeans took much longer on first start, but on subsequent starts all took about the same amount of time.",